{
  "name": "LongSwap",
  "timestamp": "2020-08-25T15:41:29.665Z",
  "version": {
    "major": 1,
    "minor": 4,
    "patch": 2
  },
  "tags": {},
  "logoURI": "/images/coins/wbnb.png",
  "keywords": ["stablexswap", "default"],
  "tokens": [
    {
      "name": "BUSD Token",
      "symbol": "BUSD",
      "address": "0xe9e7cea3dedca5984780bafc599bd69add087d56",
      "chainId": 56,
      "decimals": 18,
      "logoURI": "/images/coins/BUSD.png"
    },
    {
      "name": "Tether USD",
      "symbol": "USDT",
      "address": "0x55d398326f99059ff775485246999027b3197955",
      "chainId": 56,
      "decimals": 18,
      "logoURI": "/images/coins/USDT-icon.png"
    },
    {
      "name": "Dai Token",
      "symbol": "DAI",
      "address": "0x1af3f329e8be154074d8769d1ffa4ee058b1dbc3",
      "chainId": 56,
      "decimals": 18,
      "logoURI": "/images/coins/DAI-icon.png"
    },
    {
      "name": "USD Coin",
      "symbol": "USDC",
      "address": "0x8ac76a51cc950d9822d68b83fe1ad97b32cd580d",
      "chainId": 56,
      "decimals": 18,
      "logoURI": "/images/coins/USDC.png"
    },
    {
      "name": "CAKE",
      "symbol": "CAKE",
      "address": "0x0E09FaBB73Bd3Ade0a17ECC321fD13a19e81cE82",
      "chainId": 56,
      "decimals": 18,
      "logoURI": "/images/coins/cake.png"
    },
    {
      "name": "ZEC",
      "symbol": "ZEC",
      "address": "0x1Ba42e5193dfA8B03D15dd1B86a3113bbBEF8Eeb",
      "chainId": 56,
      "decimals": 18,
      "logoURI": "/images/coins/ZEC.png"
    },
    {
      "name": "YFII",
      "symbol": "YFII",
      "address": "0x7F70642d88cf1C4a3a7abb072B53B929b653edA5",
      "chainId": 56,
      "decimals": 18,
      "logoURI": "/images/coins/ZEC.png"
    },
    {
      "name": "XVS",
      "symbol": "XVS",
      "address": "0xcF6BB5389c92Bdda8a3747Ddb454cB7a64626C63",
      "chainId": 56,
      "decimals": 18,
      "logoURI": "/images/coins/XVS.png"
    },
    {
      "name": "XTZ",
      "symbol": "XTZ",
      "address": "0x16939ef78684453bfDFb47825F8a5F714f12623a",
      "chainId": 56,
      "decimals": 18,
      "logoURI": "/images/coins/XTZ.png"
    },
    {
      "name": "WBNB",
      "symbol": "WBNB",
      "address": "0xbb4CdB9CBd36B01bD1cBaEBF2De08d9173bc095c",
      "chainId": 56,
      "decimals": 18,
      "logoURI": "/images/coins/wbnb.png"
    },
    {
      "name": "TWT",
      "symbol": "TWT",
      "address": "0x4B0F1812e5Df2A09796481Ff14017e6005508003",
      "chainId": 56,
      "decimals": 18,
      "logoURI": "/images/coins/TWT.png"
    },
    {
      "name": "STAX",
      "symbol": "STAX",
      "address": "0x0Da6Ed8B13214Ff28e9Ca979Dd37439e8a88F6c4",
      "chainId": 56,
      "decimals": 18,
      "logoURI": "/images/coins/STAX.png"
    },
    {
      "name": "BIFI",
      "symbol": "BIFI",
      "address": "0xCa3F508B8e4Dd382eE878A314789373D80A5190A",
      "chainId": 56,
      "decimals": 18,
      "logoURI": "/images/coins/BIFI.png"
    },
    {
      "name": "cream",
      "symbol": "cream",
      "address": "0xd4CB328A82bDf5f03eB737f37Fa6B370aef3e888",
      "chainId": 56,
      "decimals": 18,
      "logoURI": "/images/coins/cream.png"
    },
    {
      "name": "burger",
      "symbol": "burger",
      "address": "0xAe9269f27437f0fcBC232d39Ec814844a51d6b8f",
      "chainId": 56,
      "decimals": 18,
      "logoURI": "/images/coins/burger.png"
    },
    {
      "name": "ETH",
      "symbol": "ETH",
      "address": "0x2170Ed0880ac9A755fd29B2688956BD959F933F8",
      "chainId": 56,
      "decimals": 18,
      "logoURI": "/images/coins/ETH.png"
    },
    {
      "name": "LONG",
      "symbol": "LONG",
      "address": "0xc2E2E519347552aC1E22bE02fa53eF6Aaf3A93F5",
      "chainId": 56,
      "decimals": 18,
      "logoURI": "/images/coins/LONG.png"
    }
  ]
}
